…
## Getting started

## Generic table interface

All fishbase tables can be accessed by name using the `fb_tbl()`
function:

``` r
fb_tbl("ecosystem")
```

    # A tibble: 157,870 × 18
       autoctr E_CODE Ecosy…¹ Specc…² Stock…³ Status Curre…⁴ Abund…⁵ LifeS…⁶ Remarks
         <int>  <int>   <int>   <int>   <int> <chr>  <chr>   <chr>   <chr>   <chr>  
     1       1      1   50628     549     565 native Present <NA>    adults  <NA>   
     2       2      1     189     552     568 native Present <NA>    adults  <NA>   
     3       3      1     189     554     570 native Present <NA>    adults  <NA>   
     4       4      1   79732     873     889 native Present <NA>    adults  <NA>   
     5       5      1    5217     948     964 native Present <NA>    adults  <NA>   
     6       7      1   39852     956     972 native Present <NA>    adults  <NA>   
     7       8      1   39852     957     973 native Present <NA>    adults  <NA>   
     8       9      1   39852     958     974 native Present <NA>    adults  <NA>   
     9      10      1     188    1526    1719 native Present <NA>    adults  <NA>   
    10      11      1     188    1626    1819 native Present <NA>    adults  <NA>   
    # … with 157,860 more rows, 8 more variables: Entered <int>,
    #   Dateentered <dttm>, Modified <int>, Datemodified <dttm>, Expert <int>,
    #   Datechecked <dttm>, WebURL <chr>, TS <dttm>, and abbreviated variable names
    #   ¹​EcosystemRefno, ²​Speccode, ³​Stockcode, ⁴​CurrentPresence, ⁵​Abundance,
    #   ⁶​LifeStage
…
## SeaLifeBase

SeaLifeBase.org is maintained by the same organization and largely
parallels the database structure of Fishbase. As such, almost all
`rfishbase` functions can instead be instructed to address the

``` r
fb_tbl("species", "sealifebase")
```

    # A tibble: 103,169 × 109
       SpecCode Genus  Species Author Speci…¹ FBname FamCode Subfa…² GenCode TaxIs…³
          <int> <chr>  <chr>   <chr>    <int> <chr>    <int> <chr>     <int>   <int>
     1    10217 Abyss… cidaris Poore…    3113 <NA>       512 <NA>       9280       0
     2    10218 Abyss… panope  Poore…    3113 <NA>       512 <NA>       9280       0
     3    90399 Abyss… averin… Kussa…    3113 <NA>       502 <NA>      17490       0
     4    52610 Abyss… millari Monni…    2585 <NA>       978 <NA>       9281       0
     5    52611 Abyss… wyvill… Herdm…    2892 <NA>       978 <NA>       9281       0
     6   138684 Abyss… planus  (Slad…   81020 <NA>      1615 <NA>      24229       0
     7    90400 Abyss… acutil… Doti …    3113 <NA>       587 <NA>       9282       0
     8    10219 Abyss… argent… Menzi…    3113 <NA>       587 <NA>       9282       0
     9    10220 Abyss… bathya… Just,…    3113 <NA>       587 <NA>       9282       0
    10    10221 Abyss… dentif… Menzi…    3113 <NA>       587 <NA>       9282       0
    # … with 103,159 more rows, 99 more variables: Remark <chr>,
    #   PicPreferredName <chr>, PicPreferredNameM <chr>, PicPreferredNameF <chr>,
    #   PicPreferredNameJ <chr>, Source <chr>, AuthorRef <int>, SubGenCode <int>,
    #   Fresh <int>, Brack <int>, Saltwater <int>, Land <int>, BodyShapeI <chr>,
    #   DemersPelag <chr>, AnaCat <chr>, MigratRef <int>, DepthRangeShallow <int>,
    #   DepthRangeDeep <int>, DepthRangeRef <int>, DepthRangeComShallow <int>,
    #   DepthRangeComDeep <int>, DepthComRef <int>, LongevityWild <dbl>, …
…
